Chapter 1 Introduction | Statistical Models in R
…
## The following objects are masked from 'package:stats':
## 
##     filter, lag

## The following objects are masked from 'package:base':
## 
##     intersect, setdiff, setequal, union

mtcars$modelname <- rownames(mtcars) # name column with models
mtcars <- as_tibble(mtcars) # convert to tibble
mtcars # display the raw data

## # A tibble: 32 × 12
##      mpg   cyl  disp    hp  drat    wt  qsec    vs    am  gear  carb modelname  
##    <dbl> <dbl> <dbl> <dbl> <dbl> <dbl> <dbl> <dbl> <dbl> <dbl> <dbl> <chr>      
##  1  21       6  160    110  3.9   2.62  16.5     0     1     4     4 Mazda RX4  
##  2  21       6  160    110  3.9   2.88  17.0     0     1     4     4 Mazda RX4 …
##  3  22.8     4  108     93  3.85  2.32  18.6     1     1     4     1 Datsun 710 
##  4  21.4     6  258    110  3.08  3.22  19.4     1     0     3     1 Hornet 4 D…
##  5  18.7     8  360    175  3.15  3.44  17.0     0     0     3     2 Hornet Spo…
##  6  18.1     6  225    105  2.76  3.46  20.2     1     0     3     1 Valiant    
##  7  14.3     8  360    245  3.21  3.57  15.8     0     0     3     4 Duster 360 
##  8  24.4     4  147.    62  3.69  3.19  20       1     0     4     2 Merc 240D  
##  9  22.8     4  141.    95  3.92  3.15  22.9     1     0     4     2 Merc 230   
## 10  19.2     6  168.   123  3.92  3.44  18.3     1     0     4     4 Merc 280   
## # … with 22 more rows

Let’s say we want to get the cars with more than 100 hp, and we are just
interested in the car model name and we want the data to be sorted in alphabetic
order.

mtcars %>% # send the data into the transformation pipe
  dplyr::filter(hp > 100) %>% # filter rows with hp > 100
  dplyr::select(modelname) %>% # filter columns (select only modelname col)
  dplyr::arrange(modelname) # display in alphabetic order

## # A tibble: 23 × 1
##    modelname         
##    <chr>             
##  1 AMC Javelin       
##  2 Cadillac Fleetwood
##  3 Camaro Z28        
##  4 Chrysler Imperial 
##  5 Dodge Challenger  
##  6 Duster 360        
##  7 Ferrari Dino      
##  8 Ford Pantera L    
##  9 Hornet 4 Drive    
## 10 Hornet Sportabout 
## # … with 13 more rows
…
Besides, -> is also valid and it is used (more intuitive) when assigning pipes
result to variables.

library(dplyr)

starwars %>%
  dplyr::mutate(bmi = mass / ((height / 100) ^ 2)) %>%
  dplyr::filter(!is.na(bmi)) %>%
  dplyr::group_by(species) %>%
  dplyr::summarise(bmi = mean(bmi)) %>%
  dplyr::arrange(desc(bmi)) -> x

x

## # A tibble: 32 × 2
##    species          bmi
##    <chr>          <dbl>
##  1 Hutt           443. 
##  2 Vulptereen      50.9
##  3 Yoda's species  39.0
##  4 Kaleesh         34.1
##  5 Droid           32.7
##  6 Dug             31.9
##  7 Trandoshan      31.3
##  8 Sullustan       26.6
##  9 Zabrak          26.1
## 10 Besalisk        26.0
## # … with 22 more rows
…
