Chapter 12 Lab 2 | Statistical Models in R
…
Although it’s not necessary in this case, we explicitly specify
that the when variable needs to be parsed as factor.

library(dplyr)
library(readr)
# read the dataset
insulate <- read_csv("./datasets/insulate.csv", col_types = cols(
  when = col_factor(),
  temp = col_double(),
  cons = col_double()
))
insulate

## # A tibble: 56 × 3
##    when    temp  cons
##    <fct>  <dbl> <dbl>
##  1 before  -0.8   7.2
##  2 before  -0.7   6.9
##  3 before   0.4   6.4
##  4 before   2.5   6  
##  5 before   2.9   5.8
##  6 before   3.2   5.8
##  7 before   3.6   5.6
##  8 before   3.9   4.7
##  9 before   4.2   5.8
## 10 before   4.3   5.2
## # ℹ 46 more rows
…
