Chapter 4 The linear model | Lab 2 - Insulate
…
## Rows: 200 Columns: 4
## ── Column specification ────────────────────────────────────────────────────────
## Delimiter: ","
## dbl (4): TV, Radio, Newspaper, Sales
## 
## ℹ Use `spec()` to retrieve the full column specification for this data.
## ℹ Specify the column types or set `show_col_types = FALSE` to quiet this message.

advertising

## # A tibble: 200 × 4
##       TV Radio Newspaper Sales
##    <dbl> <dbl>     <dbl> <dbl>
##  1 230.   37.8      69.2  22.1
##  2  44.5  39.3      45.1  10.4
##  3  17.2  45.9      69.3  12  
##  4 152.   41.3      58.5  16.5
##  5 181.   10.8      58.4  17.9
##  6   8.7  48.9      75     7.2
##  7  57.5  32.8      23.5  11.8
##  8 120.   19.6      11.6  13.2
##  9   8.6   2.1       1     4.8
## 10 200.    2.6      21.2  15.6
## # ℹ 190 more rows
…
